<svg id="header-logo-svg" xmlns="http://www.w3.org/2000/svg" xmlns:xlink="http://www.w3.org/1999/xlink" version="1.1" x="0px" y="0px" viewBox="0 0 219 55" enable-background="new 0 0 219 55" xml:space="preserve">
                <title>Supermuffato.com</title>
                <desc>
                  Navegue em nossa loja e compre Eletroeletrônicos, Smartphones, Informática, Pneus, utilidades domésticas e muito mais.
                </desc>
                <defs>
                  <style>
                    .logo-standard {
                      display: none;
                    }

                    @media screen and (min-width: 600px) {
                      .logo-standard {
                        display: block;
                      }

                      .logo-mobile {
                        display: none;
                      }
                    }
                  </style>
                </defs>
                <g class="logo-standard">
                  <path fill="#444444" d="M77.4 5.5c0 0.7 0 1.8-1.3 1.8c-1.3 0-1.3-1.1-1.3-1.8c0 0 0-4.7 0-5.3h-2.9c0 0.6 0 5.6 0 5.6 c0 3.3 2.3 4 4.2 4c1.9 0 4.2-0.7 4.2-4c0 0 0-5 0-5.6h-2.9C77.4 0.8 77.4 5.5 77.4 5.5z M60.9 3.9l-0.8-0.2c0 0-0.1 0-0.1 0 c-0.3-0.1-0.9-0.2-0.9-0.8c0-0.5 0.4-0.9 1.1-0.9c0.6 0 1.2 0.2 1.9 0.6c0.2-0.5 0.6-1.5 0.7-1.9C62 0.2 61.1 0 60.1 0 c-1.9 0-3.9 1.2-3.9 3.4c0 1.7 1.6 2.2 2.3 2.3l0.8 0.2c0.3 0.1 1 0.2 1 0.9c0 0.7-0.6 0.9-1.2 0.9c-0.7 0-1.5-0.3-2.2-0.9 C56.6 7.4 56.2 8.6 56 9c1 0.5 2.2 0.8 3.3 0.8c1.9 0 3.9-1 3.9-3.3C63.2 5.1 62.5 4.3 60.9 3.9z M127.4 6.8 c-0.1-0.2-0.3-0.4-0.5-0.5l-0.1 0c-0.1-0.1-0.1-0.2-0.1-0.3V6c0-0.1 0.1-0.3 0.2-0.3c1.3-0.4 1.7-1 1.7-2.3 c0-2.8-2.3-3.2-3.7-3.2c0 0-3.4 0-4 0v9.4h2.8c0-0.5 0-2.9 0-2.9c0-0.2 0.1-0.3 0.3-0.3h0.1c0.1 0 0.2 0.1 0.3 0.2 c0 0 1.3 2.7 1.5 3.1h3.3C128.7 8.8 127.4 6.8 127.4 6.8z M124.3 4.6h-0.2c-0.2 0-0.3-0.2-0.3-0.3V2.6c0-0.2 0.1-0.3 0.3-0.3h0.3 c0.4 0 1.5 0 1.5 1.2C125.8 4.6 124.7 4.6 124.3 4.6z M108.8 7.2v-1c0-0.2 0.1-0.3 0.3-0.3c0 0 1.9 0 2.4 0V3.9 c-0.5 0-2.4 0-2.4 0c-0.2 0-0.3-0.2-0.3-0.3v-1c0-0.2 0.1-0.3 0.3-0.3c0 0 2.1 0 2.7 0V0.2h-5.9v9.4h6V7.5c-0.5 0-2.8 0-2.8 0 C108.9 7.5 108.8 7.4 108.8 7.2z M93.7 0.2c0 0-3.6 0-4.2 0v9.4h2.8c0-0.5 0-2.7 0-2.7c0-0.2 0.1-0.3 0.3-0.3h1.8 c1.8 0 2.9-1.1 2.9-3C97.3 1.4 96 0.2 93.7 0.2z M92.9 4.7h-0.4c-0.2 0-0.3-0.2-0.3-0.3V2.6c0-0.2 0.1-0.3 0.3-0.3h0.3 c0.4 0 1.6 0 1.6 1.2C94.6 4.3 94 4.7 92.9 4.7z">
                  </path>
                  <path fill="#E64425" d="M73.1 12.1h-5.6c-0.6 0-1 0.5-1 1v22.1c0 0.6-0.5 1-1 1h-1.7c-0.6 0-1-0.5-1-1V13.1c0-0.6-0.5-1-1-1h-5.6 c-0.6 0-1 0.5-1 1V39c0 0.6 0.2 2.3 1.5 3.6c1.3 1.3 3 1.5 3.6 1.5h3.2c0.6 0 1.2-0.1 1.9-0.4c0.5-0.2 1-0.6 1.1-0.7 c0 0.1 0 0.1 0 0.2c0 0.4 0.3 0.8 0.8 0.8h5.8c0.6 0 1-0.5 1-1V13.1C74.1 12.6 73.7 12.1 73.1 12.1z M90.5 12.1h-8.8 c-1.1 0-2.6 0.4-3.6 1.6c-1 1.2-1.4 2.5-1.4 3.5V43c0 0.6 0.5 1 1 1h5.6c0.6 0 1-0.5 1-1V33c0-0.6 0.5-1 1-1h4.3c0.6 0 1-0.5 1-1 v-5.7c0-0.6-0.5-1-1-1h-4.3c-0.6 0-1-0.5-1-1v-2.2c0-0.6 0.5-1 1-1h5.1c0.6 0 1-0.5 1-1v-5.7C91.5 12.6 91 12.1 90.5 12.1z M107.5 12.1h-8.8c-1.1 0-2.6 0.4-3.6 1.6c-1 1.2-1.4 2.5-1.4 3.5V43c0 0.6 0.5 1 1 1h5.6c0.6 0 1-0.5 1-1V33c0-0.6 0.5-1 1-1h4.3 c0.6 0 1-0.5 1-1v-5.7c0-0.6-0.5-1-1-1h-4.3c-0.6 0-1-0.5-1-1v-2.2c0-0.6 0.5-1 1-1h5.1c0.6 0 1-0.5 1-1v-5.7 C108.5 12.6 108 12.1 107.5 12.1z M146 36.3h-3.3c-0.6 0-1-0.5-1-1V20.9c0-0.6 0.5-1 1-1h3.2c0.6 0 1-0.5 1-1v-5.7c0-0.6-0.5-1-1-1 h-3.2c-0.6 0-1-0.5-1-1V1c0-0.6-0.5-1-1-1H135c-0.6 0-1 0.5-1 1v10c0 0.6-0.5 1-1 1h-1c-0.6 0-1 0.5-1 1v5.7c0 0.6 0.5 1 1 1h1 c0.6 0 1 0.5 1 1v18c0 1.2 0.4 2.3 1.3 3.4c0.9 1.1 2.5 1.7 3.7 1.7h7c0.6 0 1-0.5 1-1v-5.7C147 36.7 146.6 36.3 146 36.3z M51.7 0 h-4.9c-0.6 0-1.2 0.4-1.4 0.9L33.6 26.4c-0.2 0.5-0.4 0.5-0.4-0.1V1c0-0.6-0.5-1-1-1l-5.9 0c-0.6 0-1.2 0.4-1.4 0.9L0.1 54.1 c-0.2 0.5 0 0.9 0.6 0.9h6.5c0.6 0 1.2-0.4 1.4-0.9l16.8-37.2c0.2-0.5 0.4-0.5 0.4 0.1V43c0 0.6 0.5 1 1 1h5.3 c0.6 0 1.2-0.4 1.4-0.9l11.9-26c0.2-0.5 0.4-0.5 0.4 0.1V43c0 0.6 0.5 1 1 1h4.9c0.6 0 1-0.5 1-1V1C52.8 0.5 52.3 0 51.7 0z M123.8 12.1c0 0-11.4 0-12 0s-1 0.5-1 1v5.7c0 0.6 0.5 1.1 1 1.1h8.3c0.6 0 1 0.5 1 1v2.2c0 0.6-0.4 1.1-1 1.1c-0.6 0-6.8 0-6.8 0 c-1.9 0-3.5 1.6-3.5 3.5V39c0 2.9 2.3 5.1 5.1 5.1h4.2c0.9 0 1.6-0.6 1.9-1.4c0 0 0 0.2 0 0.6c0 0.4 0.3 0.8 0.8 0.8h5.9 c0.5 0 1-0.5 1-1.1c0-0.6 0-25.7 0-25.7C128.8 14.4 126.6 12.1 123.8 12.1z M121.1 35.5c0 0.5-0.4 0.8-0.8 0.8h-2 c-0.4 0-0.8-0.4-0.8-0.8v-2.7c0-0.5 0.4-0.8 0.8-0.8h2c0.4 0 0.8 0.4 0.8 0.8V35.5z M162.9 12.1h-8.7c-2.8 0-5 2.4-5 5.1V39 c0 2.8 2.4 5.1 5 5.1h8.7c2.7 0 5-2.3 5-5.1V17.4C168 14.3 165.6 12.1 162.9 12.1z M160.3 35.4c0 0.5-0.4 0.8-0.8 0.8h-1.8 c-0.4 0-0.8-0.4-0.8-0.8V20.7c0-0.5 0.4-0.8 0.8-0.8h1.8c0.4 0 0.8 0.4 0.8 0.8V35.4z M185.9 24.9v3.5c0 0.4-0.3 0.6-0.6 0.6h-3.1 c-0.3 0-0.6 0.3-0.6 0.6V31v3.1v3.1v0v1.4c0 0.4 0.3 0.6 0.6 0.6h3.1c0.3 0 0.6 0.3 0.6 0.6v3.5c0 0.4-0.3 0.6-0.6 0.6H180 c-0.6 0-1.5-0.3-2.2-1c-0.6-0.7-0.8-1.6-0.8-2.2v-1.4v-5.4v-6.7c0-0.6 0.2-1.5 0.8-2.2c0.6-0.7 1.5-1 2.2-1h5.3 C185.6 24.2 185.9 24.5 185.9 24.9z M174.9 43.4L174.9 43.4c0 0.6-0.6 0.6-0.6 0.6h-3.4c-0.6 0-0.6-0.6-0.6-0.6v-3.6 c0-0.6 0.6-0.6 0.6-0.6h3.4c0.6 0 0.6 0.6 0.6 0.6V43.4z M219 27.4v16c0 0.4-0.3 0.6-0.6 0.6H215c-0.1 0-0.3-0.1-0.4-0.2 c0 0 0 0 0 0c-0.1-0.1-0.1-0.2-0.2-0.3c0 0 0 0 0 0c0-0.1 0-0.1 0-0.2V29.6c0-0.4-0.3-0.6-0.6-0.6h-1c-0.3 0-0.6 0.3-0.6 0.6v13.8 c0 0.4-0.3 0.6-0.6 0.6h-3.3c-0.1 0-0.3-0.1-0.4-0.2c0 0 0 0 0 0c-0.1-0.1-0.1-0.2-0.2-0.3c0 0 0 0 0 0c0-0.1 0-0.1 0-0.2V29.6 c0-0.4-0.3-0.6-0.6-0.6h-1c-0.3 0-0.6 0.3-0.6 0.6v13.7c0 0.3-0.2 0.5-0.4 0.6c0 0 0 0 0 0c-0.1 0-0.1 0-0.2 0h-3.3 c-0.1 0-0.1 0-0.2 0c0 0 0 0 0 0c-0.2-0.1-0.4-0.3-0.4-0.6V24.9c0-0.3 0.2-0.5 0.4-0.6c0 0 0 0 0 0c0.1 0 0.1 0 0.2 0h3.5 c0 0 0 0 0 0c0 0 0.1 0 0.1 0c0 0 0 0 0.1 0c0 0 0 0 0.1 0c0 0 0 0 0 0c0 0 0.1 0.1 0.1 0.1c0 0 0 0 0 0.1c0 0 0 0 0 0.1 c0 0 0 0 0 0.1c0 0 0 0.1 0 0.1c0 0 0 0 0 0c0 0 0 0 0 0c0 0.1 0 0.1 0 0.1c0.1-0.1 0.4-0.3 0.7-0.4c0.1 0 0.1 0 0.2-0.1 c0 0 0 0 0 0c0 0 0 0 0 0c0.2 0 0.3-0.1 0.5-0.1c0 0 0 0 0 0c0.1 0 0.3 0 0.4 0h1.9c0.2 0 0.5 0 0.8 0.1c0 0 0 0 0 0 c0.1 0 0.1 0 0.2 0.1c0 0 0.1 0 0.1 0c0.1 0 0.1 0.1 0.2 0.1c0 0 0.1 0 0.1 0.1c0.1 0 0.1 0.1 0.2 0.1c0 0 0.1 0.1 0.1 0.1 c0.1 0 0.1 0.1 0.2 0.1c0 0 0.1 0.1 0.1 0.1c0.1 0 0.1 0.1 0.2 0.1c0 0 0 0 0 0c0 0 0 0 0 0c0.1-0.1 0.1-0.1 0.2-0.1 c0 0 0.1-0.1 0.1-0.1c0.1 0 0.1-0.1 0.2-0.1c0 0 0.1-0.1 0.1-0.1c0.1 0 0.1-0.1 0.2-0.1c0 0 0.1 0 0.1-0.1c0.1 0 0.1-0.1 0.2-0.1 c0 0 0.1 0 0.1 0c0.1 0 0.1 0 0.2-0.1c0 0 0 0 0 0c0.4-0.1 0.7-0.1 0.8-0.1h0.5h0.9h1.1c0.2 0 0.5 0 0.8 0.1c0 0 0 0 0 0 c0.1 0 0.1 0 0.2 0.1c0 0 0.1 0 0.1 0c0.1 0 0.1 0.1 0.2 0.1c0 0 0.1 0 0.1 0.1c0.1 0 0.1 0.1 0.2 0.1c0 0 0.1 0.1 0.1 0.1 c0.1 0 0.1 0.1 0.2 0.1c0 0 0.1 0.1 0.1 0.1c0.1 0 0.1 0.1 0.2 0.1C218.9 26 219 27 219 27.4z M196 24.2h-5.2c-1.7 0-3 1.5-3 3.2 v13.5c0 1.7 1.4 3.1 3 3.1h5.2c1.6 0 3-1.4 3-3.1V27.5C199 25.5 197.6 24.2 196 24.2z M194.4 38.7c0 0.3-0.2 0.5-0.5 0.5h-1.1 c-0.3 0-0.5-0.2-0.5-0.5v-9.1c0-0.3 0.2-0.5 0.5-0.5h1.1c0.3 0 0.5 0.2 0.5 0.5V38.7z">
                  </path>
                </g>
                <g class="logo-mobile">
                  <path fill="#444444" d="M134.3 7.2v-1c0-0.2 0.1-0.3 0.3-0.3c0 0 1.9 0 2.4 0V3.9c-0.5 0-2.4 0-2.4 0c-0.2 0-0.3-0.2-0.3-0.3v-1 c0-0.2 0.1-0.3 0.3-0.3c0 0 2.1 0 2.7 0V0.2h-5.9v9.4h6V7.5c-0.5 0-2.8 0-2.8 0C134.4 7.5 134.3 7.4 134.3 7.2z M102.9 5.5 c0 0.7 0 1.8-1.3 1.8c-1.3 0-1.3-1.1-1.3-1.8c0 0 0-4.7 0-5.3h-2.9c0 0.6 0 5.6 0 5.6c0 3.3 2.3 4 4.2 4c1.9 0 4.2-0.7 4.2-4 c0 0 0-5 0-5.6h-2.9C102.9 0.8 102.9 5.5 102.9 5.5z M86.4 3.9l-0.8-0.2c0 0-0.1 0-0.1 0c-0.3-0.1-0.9-0.2-0.9-0.8 c0-0.5 0.5-0.9 1.1-0.9c0.6 0 1.2 0.2 1.9 0.6c0.2-0.5 0.6-1.5 0.7-1.9C87.5 0.2 86.6 0 85.7 0c-1.9 0-3.9 1.2-3.9 3.4 c0 1.7 1.6 2.2 2.3 2.3l0.8 0.2c0.3 0.1 1 0.2 1 0.9c0 0.7-0.6 0.9-1.2 0.9c-0.7 0-1.5-0.3-2.2-0.9c-0.2 0.5-0.7 1.7-0.8 2.1 c1 0.5 2.2 0.8 3.3 0.8c1.9 0 3.9-1 3.9-3.3C88.7 5.1 88 4.3 86.4 3.9z M152.9 6.8c-0.1-0.2-0.3-0.4-0.5-0.5l-0.1 0 c-0.1-0.1-0.1-0.2-0.1-0.3V6c0-0.1 0.1-0.3 0.2-0.3c1.3-0.4 1.7-1 1.7-2.3c0-2.8-2.3-3.2-3.7-3.2c0 0-3.4 0-4 0v9.4h2.8 c0-0.5 0-2.9 0-2.9c0-0.2 0.1-0.3 0.3-0.3h0.1c0.1 0 0.2 0.1 0.3 0.2c0 0 1.3 2.7 1.5 3.1h3.3C154.2 8.8 152.9 6.8 152.9 6.8z M149.9 4.6h-0.2c-0.2 0-0.3-0.2-0.3-0.3V2.6c0-0.2 0.1-0.3 0.3-0.3h0.3c0.4 0 1.5 0 1.5 1.2C151.4 4.6 150.2 4.6 149.9 4.6z M119.2 0.2c0 0-3.6 0-4.2 0v9.4h2.8c0-0.5 0-2.7 0-2.7c0-0.2 0.1-0.3 0.3-0.3h1.8c1.8 0 2.9-1.1 2.9-3 C122.8 1.4 121.5 0.2 119.2 0.2z M118.5 4.7h-0.4c-0.2 0-0.3-0.2-0.3-0.3V2.6c0-0.2 0.1-0.3 0.3-0.3h0.3c0.4 0 1.6 0 1.6 1.2 C120.1 4.3 119.5 4.7 118.5 4.7z">
                  </path>
                  <path fill="#E64425" d="M98.7 12.1h-5.6c-0.6 0-1 0.5-1 1v22.1c0 0.6-0.5 1-1 1h-1.7c-0.6 0-1-0.5-1-1V13.1c0-0.6-0.5-1-1-1h-5.6 c-0.6 0-1 0.5-1 1V39c0 0.6 0.2 2.3 1.5 3.6c1.3 1.3 3 1.5 3.6 1.5h3.2c0.6 0 1.2-0.1 1.9-0.4c0.5-0.2 1-0.6 1.1-0.7 c0 0.1 0 0.1 0 0.2c0 0.4 0.3 0.8 0.8 0.8h5.8c0.6 0 1-0.5 1-1V13.1C99.7 12.6 99.2 12.1 98.7 12.1z M116 12.1h-8.8 c-1.1 0-2.6 0.4-3.6 1.6c-1 1.2-1.4 2.5-1.4 3.5V43c0 0.6 0.5 1 1 1h5.6c0.6 0 1-0.5 1-1V33c0-0.6 0.5-1 1-1h4.3c0.6 0 1-0.5 1-1 v-5.7c0-0.6-0.5-1-1-1h-4.3c-0.6 0-1-0.5-1-1v-2.2c0-0.6 0.5-1 1-1h5.1c0.6 0 1-0.5 1-1v-5.7C117 12.6 116.5 12.1 116 12.1z M133 12.1h-8.8c-1.1 0-2.6 0.4-3.6 1.6c-1 1.2-1.4 2.5-1.4 3.5V43c0 0.6 0.5 1 1 1h5.6c0.6 0 1-0.5 1-1V33c0-0.6 0.5-1 1-1h4.3 c0.6 0 1-0.5 1-1v-5.7c0-0.6-0.5-1-1-1h-4.3c-0.6 0-1-0.5-1-1v-2.2c0-0.6 0.5-1 1-1h5.1c0.6 0 1-0.5 1-1v-5.7 C134 12.6 133.5 12.1 133 12.1z M171.5 36.3h-3.3c-0.6 0-1-0.5-1-1V20.9c0-0.6 0.5-1 1-1h3.2c0.6 0 1-0.5 1-1v-5.7c0-0.6-0.5-1-1-1 h-3.2c-0.6 0-1-0.5-1-1V1c0-0.6-0.5-1-1-1h-5.6c-0.6 0-1 0.5-1 1v10c0 0.6-0.5 1-1 1h-1c-0.6 0-1 0.5-1 1v5.7c0 0.6 0.5 1 1 1h1 c0.6 0 1 0.5 1 1v18c0 1.2 0.4 2.3 1.3 3.4c0.9 1.1 2.5 1.7 3.7 1.7h7c0.6 0 1-0.5 1-1v-5.7C172.6 36.7 172.1 36.3 171.5 36.3z M77.3 0h-4.9C71.8 0 71.2 0.4 71 1L59.1 26.4c-0.2 0.5-0.4 0.5-0.4-0.1V1c0-0.6-0.5-1-1-1l-5.9 0c-0.6 0-1.2 0.4-1.4 0.9 L25.6 54.1c-0.2 0.5 0 0.9 0.6 0.9h6.5c0.6 0 1.2-0.4 1.4-0.9l16.8-37.2c0.2-0.5 0.4-0.5 0.4 0.1V43c0 0.6 0.5 1 1 1h5.3 c0.6 0 1.2-0.4 1.4-0.9l11.9-26c0.2-0.5 0.4-0.5 0.4 0.1V43c0 0.6 0.5 1 1 1h4.9c0.6 0 1-0.5 1-1V1C78.3 0.5 77.8 0 77.3 0z M149.3 12.1c0 0-11.4 0-12 0s-1 0.5-1 1v5.7c0 0.6 0.5 1.1 1 1.1h8.3c0.6 0 1 0.5 1 1v2.2c0 0.6-0.4 1.1-1 1.1c-0.6 0-6.8 0-6.8 0 c-1.9 0-3.5 1.6-3.5 3.5V39c0 2.9 2.3 5.1 5.1 5.1h4.2c0.9 0 1.6-0.6 1.9-1.4c0 0 0 0.2 0 0.6c0 0.4 0.3 0.8 0.8 0.8h5.9 c0.5 0 1-0.5 1-1.1c0-0.6 0-25.7 0-25.7C154.3 14.4 152.1 12.1 149.3 12.1z M146.6 35.5c0 0.5-0.4 0.8-0.8 0.8h-2 c-0.4 0-0.8-0.4-0.8-0.8v-2.7c0-0.5 0.4-0.8 0.8-0.8h2c0.4 0 0.8 0.4 0.8 0.8V35.5z M188.5 12.1h-8.7c-2.8 0-5 2.4-5 5.1V39 c0 2.8 2.4 5.1 5 5.1h8.7c2.7 0 5-2.3 5-5.1V17.4C193.5 14.3 191.1 12.1 188.5 12.1z M185.8 35.4c0 0.5-0.4 0.8-0.8 0.8h-1.8 c-0.4 0-0.8-0.4-0.8-0.8V20.7c0-0.5 0.4-0.8 0.8-0.8h1.8c0.4 0 0.8 0.4 0.8 0.8V35.4z">
                  </path>
                </g>
                </svg>